<?xml version="1.0" encoding="UTF-8"?>
<svg width="15px" height="14px" viewBox="0 0 15 14" version="1.1" xmlns="http://www.w3.org/2000/svg" xmlns:xlink="http://www.w3.org/1999/xlink">
    <!-- Generator: Sketch 58 (84663) - https://sketch.com -->
    <title>driving/selected</title>
    <desc>Created with Sketch.</desc>
    <g id="v5" stroke="none" stroke-width="1" fill="none" fill-rule="evenodd">
        <g id="driving/selected" transform="translate(-3.000000, -3.000000)">
            <path d="M16.317619,4.44349138 C16.1592857,3.96284483 15.7159524,3.62068966 15.1934524,3.62068966 L6.48511905,3.62068966 C5.96261905,3.62068966 5.52720238,3.96284483 5.36095238,4.44349138 L3.71428571,9.32327586 L3.71428571,15.8405172 C3.71428571,16.2885776 4.07053571,16.6551724 4.50595238,16.6551724 L5.29761905,16.6551724 C5.73303571,16.6551724 6.08928571,16.2885776 6.08928571,15.8405172 L6.08928571,15.0258621 L15.5892857,15.0258621 L15.5892857,15.8405172 C15.5892857,16.2885776 15.9455357,16.6551724 16.3809524,16.6551724 L17.172619,16.6551724 C17.6080357,16.6551724 17.9642857,16.2885776 17.9642857,15.8405172 L17.9642857,9.32327586 L16.317619,4.44349138 Z M6.48511905,12.5818966 C5.82803571,12.5818966 5.29761905,12.0360776 5.29761905,11.3599138 C5.29761905,10.68375 5.82803571,10.137931 6.48511905,10.137931 C7.14220238,10.137931 7.67261905,10.68375 7.67261905,11.3599138 C7.67261905,12.0360776 7.14220238,12.5818966 6.48511905,12.5818966 Z M15.1934524,12.5818966 C14.536369,12.5818966 14.0059524,12.0360776 14.0059524,11.3599138 C14.0059524,10.68375 14.536369,10.137931 15.1934524,10.137931 C15.8505357,10.137931 16.3809524,10.68375 16.3809524,11.3599138 C16.3809524,12.0360776 15.8505357,12.5818966 15.1934524,12.5818966 Z M5.29761905,8.50862069 L6.48511905,4.84267241 L15.1934524,4.84267241 L16.3809524,8.50862069 L5.29761905,8.50862069 Z" id="Shape" fill="#009C79" fill-rule="nonzero"></path>
            <polygon id="Path" points="0 0 21 0 21 21 0 21"></polygon>
        </g>
    </g>
</svg>