{
  "studies": [
    {
      "id": "study1",
      "name": "Movimiento",
      "description": "Mide cuanto tiempo estas en movimiento comparado con cuanto tiempo estas quieto.",
      "icon": "R.drawable.ic_movement_sensors",
      "geo": false,
      "apps": false,
      "activities": true,
      "environment": false,
      "event": false,
      "commute": false,
      "time": false,
      "order": 1
    },
    {
      "id": "study4",
      "name": "Distancia",
      "description": "Rastrea tu ubicación y mide la distancia que recorres cada día",
      "icon": "R.drawable.ic_distance_sensors",
      "geo": true,
      "apps": false,
      "activities": false,
      "environment": false,
      "event": false,
      "commute": false,
      "time": false,
      "order": 0
    },
    {
      "id": "study0",
      "name": "Atmósfera ",
      "description": "Mide la temperatura,  el ruido y la oscuridad en una habitación",
      "icon": "R.drawable.ic_atmosphere_sensors",
      "geo": false,
      "apps": false,
      "activities": false,
      "environment": true,
      "event": false,
      "commute": false,
      "time": false,
      "order": 5
    },
    {
      "id": "study2",
      "name": "Diario de trabajo",
      "description": "Manten un registro de cuando algo ocurre en tu diario de trabajo",
      "icon": "R.drawable.ic_workplace_sensors",
      "geo": false,
      "apps": false,
      "activities": false,
      "environment": false,
      "event": true,
      "commute": false,
      "time": false,
      "order": 4
    },

    {
      "id": "study3",
      "name": "Uso de la aplicación",
      "description": "Mide cuanto tiempo pasas usando aplicaciones de trabajo",
      "icon": "R.drawable.ic_screen_time_sensors",
      "geo": false,
      "apps": true,
      "activities": false,
      "environment": false,
      "event": false,
      "commute": false,
      "time": false,
      "order": 3
    },
    {
      "id": "study5",
      "name": "Commute Time",
      "description": "How long does it take to get from home to work?",
      "icon": "R.drawable.ic_walking",
      "geo": true,
      "apps": false,
      "activities": false,
      "environment": false,
      "event": false,
      "commute": true,
      "time": false,
      "order": 2
    },
    {
      "id": "study6",
      "name": "Time Tracking",
      "description": "Simple tracking of the time you work each day",
      "icon": "R.drawable.ic_time_tracking",
      "geo": false,
      "apps": false,
      "activities": false,
      "environment": false,
      "event": false,
      "commute": false,
      "time": true,
      "order": 6
    }

  ]
}
