<?xml version="1.0" encoding="UTF-8"?>
<svg width="18px" height="20px" viewBox="0 0 18 20" version="1.1" xmlns="http://www.w3.org/2000/svg" xmlns:xlink="http://www.w3.org/1999/xlink">
    <!-- Generator: Sketch 58 (84663) - https://sketch.com -->
    <title>share/unselected</title>
    <desc>Created with Sketch.</desc>
    <g id="v5" stroke="none" stroke-width="1" fill="none" fill-rule="evenodd">
        <g id="Apps-1" transform="translate(-320.000000, -497.000000)" fill="#D8D8D8">
            <path d="M335,511.136546 C334.24,511.136546 333.56,511.437751 333.04,511.909639 L325.91,507.742972 C325.96,507.512048 326,507.281124 326,507.040161 C326,506.799197 325.96,506.568273 325.91,506.337349 L332.96,502.210843 C333.5,502.712851 334.21,503.024096 335,503.024096 C336.66,503.024096 338,501.678715 338,500.012048 C338,498.345382 336.66,497 335,497 C333.34,497 332,498.345382 332,500.012048 C332,500.253012 332.04,500.483936 332.09,500.714859 L325.04,504.841365 C324.5,504.339357 323.79,504.028112 323,504.028112 C321.34,504.028112 320,505.373494 320,507.040161 C320,508.706827 321.34,510.052209 323,510.052209 C323.79,510.052209 324.5,509.740964 325.04,509.238956 L332.16,513.415663 C332.11,513.626506 332.08,513.84739 332.08,514.068273 C332.08,515.684739 333.39,517 335,517 C336.61,517 337.92,515.684739 337.92,514.068273 C337.92,512.451807 336.61,511.136546 335,511.136546 L335,511.136546 Z" id="share/unselected"></path>
        </g>
    </g>
</svg>